final-project_cost-of-living-dataset_soumya-pannala_dsa-sharefair-version
…
Data Cleaning and Wrangling

Here, we start by cleaning names and converting variables to factor for the countryCOL dataset.

Code

countryCOL <- clean_names(countryCOL)

countryCOL$region <- as.factor(countryCOL$region) 
countryCOL$country <- as.factor(countryCOL$country) 
countryCOL$year <- as.factor(countryCOL$year)

countryCOL

# A tibble: 500 × 11
   country    year  average_monthly_income cost_of_living housing_cost_percent…¹
   <fct>      <fct>                  <dbl>          <dbl>                  <dbl>
 1 Australia  2013                   3484.          1106.                   32.1
 2 India      2019                   7771.          5423.                   25.2
 3 Russia     2004                   6991.          3972.                   40.8
 4 South Afr… 2011                   6628.          6756.                   30.4
 5 Brazil     2015                   2434.          2656.                   49.3
 6 Australia  2015                   1782.          4575.                   39.2
 7 China      2020                   5515.          6551.                   44.7
 8 Japan      2006                   7470.          1077.                   24.0
 9 Australia  2003                   4676.          6586.                   45.9
10 Russia     2000                   4787.          4940.                   47.7
# ℹ 490 more rows
# ℹ abbreviated name: ¹​housing_cost_percentage
# ℹ 6 more variables: tax_rate <dbl>, savings_percentage <dbl>,
#   healthcare_cost_percentage <dbl>, education_cost_percentage <dbl>,
#   transportation_cost_percentage <dbl>, region <fct>
…
cityCOL <- clean_names(cityCOL) 

cityCOL <- cityCOL %>% 
  separate(city, c("city", "state_country"), sep = ", ", extra = "merge")

cityCOL <- cityCOL %>% 
  separate(state_country, c("state", "country"), sep = ", ", fill = "left")

cityCOL$city <- as.factor(cityCOL$city) 
cityCOL$state <- as.factor(cityCOL$state)
cityCOL$country <- as.factor(cityCOL$country)

cityCOL

# A tibble: 536 × 10
    rank city      state country     cost_of_living_index rent_index
   <dbl> <fct>     <fct> <fct>                      <dbl>      <dbl>
 1     1 Hamilton  <NA>  Bermuda                     138.      103. 
 2     2 Zurich    <NA>  Switzerland                 129.       62.6
 3     3 Basel     <NA>  Switzerland                 127.       46.1
 4     4 Lausanne  <NA>  Switzerland                 120.       50.4
 5     5 Bern      <NA>  Switzerland                 118.       39.2
 6     6 Geneva    <NA>  Switzerland                 118.       69.2
 7     7 Reykjavik <NA>  Iceland                     113.       57.4
 8     8 Lugano    <NA>  Switzerland                 112.       49.6
 9     9 Stavanger <NA>  Norway                      111        38.8
10    10 Oslo      <NA>  Norway                      107.       48.6
# ℹ 526 more rows
# ℹ 4 more variables: cost_of_living_plus_rent_index <dbl>,
#   groceries_index <dbl>, restaurant_price_index <dbl>,
#   local_purchasing_power_index <dbl>
Let’s finish by cleaning names and converting variables to factor for the COL2022 dataset as well.

Code

COL2022 <- clean_names(COL2022)

COL2022$country <- as.factor(COL2022$country)

COL2022 <- COL2022 %>% mutate(year = 2022) 

COL2022$year <- as.factor(COL2022$year)

COL2022

# A tibble: 139 × 9
    rank country     cost_of_living_index rent_index cost_of_living_plus_rent_…¹
   <dbl> <fct>                      <dbl>      <dbl>                       <dbl>
 1     1 Afghanistan                 20.4       2.72                        12.1
 2     2 Albania                     35.5       8.47                        22.8
 3     3 Algeria                     26.9       4.59                        16.4
 4     4 Argentina                   34.7       7.71                        22.0
 5     5 Armenia                     33.9      11.6                         23.4
 6     6 Australia                   77.8      36.8                         58.6
 7     7 Austria                     71.0      27.1                         50.5
 8     8 Azerbaijan                  29.7       7.86                        19.5
 9     9 Bahamas                     84        35.3                         61.2
10    10 Bahrain                     54.8      29.2                         42.8
# ℹ 129 more rows
# ℹ abbreviated name: ¹​cost_of_living_plus_rent_index
# ℹ 4 more variables: groceries_index <dbl>, restaurant_price_index <dbl>,
#   local_purchasing_power_index <dbl>, year <fct>
…
Code

COL2022_summary <- COL2022 %>%
  group_by(country) %>%
  summarise(cost_of_living = mean(cost_of_living_index, na.rm = TRUE)) %>%
              mutate(region = countrycode(sourcevar = country,
                              origin = "country.name",
                              destination = "region"))

COL2022_summary$region <- as.factor(COL2022_summary$region)

COL2022_summary

# A tibble: 139 × 3
   country     cost_of_living region                    
   <fct>                <dbl> <fct>                     
 1 Afghanistan           20.4 South Asia                
 2 Albania               35.5 Europe & Central Asia     
 3 Algeria               26.9 Middle East & North Africa
 4 Argentina             34.7 Latin America & Caribbean 
 5 Armenia               33.9 Europe & Central Asia     
 6 Australia             77.8 East Asia & Pacific       
 7 Austria               71.0 Europe & Central Asia     
 8 Azerbaijan            29.7 Europe & Central Asia     
 9 Bahamas               84   Latin America & Caribbean 
10 Bahrain               54.8 Middle East & North Africa
# ℹ 129 more rows
…
